第三周：描述性统计：数据探索与可视化 – 统计学与R语言
…
条件创建列: 结合 if_else() 或 case_when() 函数，可以根据条件判断创建不同的列值。

链式操作: mutate() 可以和 dplyr 包的其他函数 (如 select(), filter(), group_by(), summarise()) 灵活组合使用，实现复杂的数据处理流程。

保持数据框结构: mutate() 不会改变数据框的行数，只会增加或修改列。

arrange() 函数： 排序数据

arrange() 函数可以按照指定的列对数据进行排序，可以升序，也可以降序。

# 按企鹅体重降序排序
penguins %>%
  arrange(desc(body_mass_g))

# A tibble: 344 × 10
   species island bill_length_mm bill_depth_mm flipper_length_mm body_mass_g
   <fct>   <fct>           <dbl>         <dbl>             <int>       <int>
 1 Gentoo  Biscoe           49.2          15.2               221        6300
 2 Gentoo  Biscoe           59.6          17                 230        6050
 3 Gentoo  Biscoe           51.1          16.3               220        6000
 4 Gentoo  Biscoe           48.8          16.2               222        6000
 5 Gentoo  Biscoe           45.2          16.4               223        5950
 6 Gentoo  Biscoe           49.8          15.9               229        5950
 7 Gentoo  Biscoe           48.4          14.6               213        5850
 8 Gentoo  Biscoe           49.3          15.7               217        5850
 9 Gentoo  Biscoe           55.1          16                 230        5850
10 Gentoo  Biscoe           49.5          16.2               229        5800
# ℹ 334 more rows
# ℹ 4 more variables: sex <fct>, year <int>, weight_length_ratio <dbl>,
#   body_mass_kg <dbl>

# 按企鹅种类升序、体重降序排序
penguins %>%
  arrange(species, desc(body_mass_g))

# A tibble: 344 × 10
   species island    bill_length_mm bill_depth_mm flipper_length_mm body_mass_g
   <fct>   <fct>              <dbl>         <dbl>             <int>       <int>
 1 Adelie  Biscoe              43.2          19                 197        4775
 2 Adelie  Biscoe              41            20                 203        4725
 3 Adelie  Torgersen           42.9          17.6               196        4700
 4 Adelie  Torgersen           39.2          19.6               195        4675
 5 Adelie  Dream               39.8          19.1               184        4650
 6 Adelie  Dream               39.6          18.8               190        4600
 7 Adelie  Biscoe              45.6          20.3               191        4600
 8 Adelie  Torgersen           42.5          20.7               197        4500
 9 Adelie  Dream               37.5          18.5               199        4475
10 Adelie  Torgersen           41.8          19.4               198        4450
# ℹ 334 more rows
# ℹ 4 more variables: sex <fct>, year <int>, weight_length_ratio <dbl>,
#   body_mass_kg <dbl>
…
保持数据框结构: arrange() 不会改变数据框的列数和行数，只是改变行的顺序。

数据探索和报告中使用: arrange() 常用于数据探索阶段，例如找出评分最高的电影、票房最高的电影等。在生成报告时，排序后的数据表格更易于阅读和理解。

为后续操作准备数据: 排序后的数据可以为后续的数据分析和可视化提供便利，例如绘制折线图、计算累计值等。

rename() 函数： 重命名列名

rename() 函数可以修改数据框的列名，使其更易于理解和使用。

# 将列名 bill_length_mm 重命名为 beak_length
penguins %>%
  rename(beak_length = bill_length_mm)

# A tibble: 344 × 10
   species island  beak_length bill_depth_mm flipper_length_mm body_mass_g sex  
   <fct>   <fct>         <dbl>         <dbl>             <int>       <int> <fct>
 1 Adelie  Torger…        39.1          18.7               181        3750 male 
 2 Adelie  Torger…        39.5          17.4               186        3800 fema…
 3 Adelie  Torger…        40.3          18                 195        3250 fema…
 4 Adelie  Torger…        NA            NA                  NA          NA <NA> 
 5 Adelie  Torger…        36.7          19.3               193        3450 fema…
 6 Adelie  Torger…        39.3          20.6               190        3650 male 
 7 Adelie  Torger…        38.9          17.8               181        3625 fema…
 8 Adelie  Torger…        39.2          19.6               195        4675 male 
 9 Adelie  Torger…        34.1          18.1               193        3475 <NA> 
10 Adelie  Torger…        42            20.2               190        4250 <NA> 
# ℹ 334 more rows
# ℹ 3 more variables: year <int>, weight_length_ratio <dbl>, body_mass_kg <dbl>

# 同时重命名多列
penguins %>%
  rename(beak_length = bill_length_mm, beak_depth = bill_depth_mm)

# A tibble: 344 × 10
   species island    beak_length beak_depth flipper_length_mm body_mass_g sex   
   <fct>   <fct>           <dbl>      <dbl>             <int>       <int> <fct> 
 1 Adelie  Torgersen        39.1       18.7               181        3750 male  
 2 Adelie  Torgersen        39.5       17.4               186        3800 female
 3 Adelie  Torgersen        40.3       18                 195        3250 female
 4 Adelie  Torgersen        NA         NA                  NA          NA <NA>  
 5 Adelie  Torgersen        36.7       19.3               193        3450 female
 6 Adelie  Torgersen        39.3       20.6               190        3650 male  
 7 Adelie  Torgersen        38.9       17.8               181        3625 female
 8 Adelie  Torgersen        39.2       19.6               195        4675 male  
 9 Adelie  Torgersen        34.1       18.1               193        3475 <NA>  
10 Adelie  Torgersen        42         20.2               190        4250 <NA>  
# ℹ 334 more rows
# ℹ 3 more variables: year <int>, weight_length_ratio <dbl>, body_mass_kg <dbl>
…
避免中文列名: 虽然 R 语言支持中文列名，但英文列名在编程中更通用，可以避免编码和兼容性问题。可以使用 rename() 将中文列名转换为英文列名。

不改变数据内容: rename() 只修改列名，不改变列的数据内容。

配合 select() 使用: rename() 和 select() 经常一起使用，先用 select() 选择需要的列，再用 rename() 修改列名。

distinct() 函数： 去除重复行

distinct() 函数可以去除数据框中的重复行，只保留唯一的行。

# 去除 penguins 中的重复行
penguins %>%
  distinct()

# A tibble: 344 × 10
   species island    bill_length_mm bill_depth_mm flipper_length_mm body_mass_g
   <fct>   <fct>              <dbl>         <dbl>             <int>       <int>
 1 Adelie  Torgersen           39.1          18.7               181        3750
 2 Adelie  Torgersen           39.5          17.4               186        3800
 3 Adelie  Torgersen           40.3          18                 195        3250
 4 Adelie  Torgersen           NA            NA                  NA          NA
 5 Adelie  Torgersen           36.7          19.3               193        3450
 6 Adelie  Torgersen           39.3          20.6               190        3650
 7 Adelie  Torgersen           38.9          17.8               181        3625
 8 Adelie  Torgersen           39.2          19.6               195        4675
 9 Adelie  Torgersen           34.1          18.1               193        3475
10 Adelie  Torgersen           42            20.2               190        4250
# ℹ 334 more rows
# ℹ 4 more variables: sex <fct>, year <int>, weight_length_ratio <dbl>,
#   body_mass_kg <dbl>
…
自定义汇总结果的列名: 在 summarise() 中，可以使用 列名 = 统计函数(列) 的形式，自定义汇总结果的列名，使其更易于理解。

数据探索和报告生成: summarise() 常用于数据探索阶段，快速了解数据的总体统计特征和分组统计特征。在生成报告时，汇总统计表格可以清晰地展示数据的主要特征。

为可视化提供数据: summarise() 计算的汇总统计结果，可以作为 ggplot2 等可视化工具的数据来源，用于绘制柱状图、箱线图等。

group_by() 函数： 分组数据

group_by() 函数可以将数据框按照指定的列进行分组，后续的 summarise(), mutate() 等操作会在每个分组内进行。

# 按企鹅种类分组
penguins %>%
  group_by(species)

# A tibble: 344 × 10
# Groups:   species [3]
   species island    bill_length_mm bill_depth_mm flipper_length_mm body_mass_g
   <fct>   <fct>              <dbl>         <dbl>             <int>       <int>
 1 Adelie  Torgersen           39.1          18.7               181        3750
 2 Adelie  Torgersen           39.5          17.4               186        3800
 3 Adelie  Torgersen           40.3          18                 195        3250
 4 Adelie  Torgersen           NA            NA                  NA          NA
 5 Adelie  Torgersen           36.7          19.3               193        3450
 6 Adelie  Torgersen           39.3          20.6               190        3650
 7 Adelie  Torgersen           38.9          17.8               181        3625
 8 Adelie  Torgersen           39.2          19.6               195        4675
 9 Adelie  Torgersen           34.1          18.1               193        3475
10 Adelie  Torgersen           42            20.2               190        4250
# ℹ 334 more rows
# ℹ 4 more variables: sex <fct>, year <int>, weight_length_ratio <dbl>,
#   body_mass_kg <dbl>

# 按企鹅种类和性别分组
penguins %>%
  group_by(species, sex)

# A tibble: 344 × 10
# Groups:   species, sex [8]
   species island    bill_length_mm bill_depth_mm flipper_length_mm body_mass_g
   <fct>   <fct>              <dbl>         <dbl>             <int>       <int>
 1 Adelie  Torgersen           39.1          18.7               181        3750
 2 Adelie  Torgersen           39.5          17.4               186        3800
 3 Adelie  Torgersen           40.3          18                 195        3250
 4 Adelie  Torgersen           NA            NA                  NA          NA
 5 Adelie  Torgersen           36.7          19.3               193        3450
 6 Adelie  Torgersen           39.3          20.6               190        3650
 7 Adelie  Torgersen           38.9          17.8               181        3625
 8 Adelie  Torgersen           39.2          19.6               195        4675
 9 Adelie  Torgersen           34.1          18.1               193        3475
10 Adelie  Torgersen           42            20.2               190        4250
# ℹ 334 more rows
# ℹ 4 more variables: sex <fct>, year <int>, weight_length_ratio <dbl>,
#   body_mass_kg <dbl>
…
